<svg width="48" height="48" xmlns="http://www.w3.org/2000/svg">

 <title/>
 <g>
  <title>background</title>
  <rect fill="none" id="canvas_background" height="402" width="582" y="-1" x="-1"/>
 </g>
 <g>
  <title>Layer 1</title>
  <path fill="#ffffff" id="svg_1" d="m19.782651,43.45a0.94,0.94 0 0 1 -0.51,-0.14a1,1 0 0 1 -0.49,-0.86l0,-14.11l-12.79,-16.73a1,1 0 0 1 -0.21,-0.61l0,-5.81a1,1 0 0 1 1,-1l34,0a1,1 0 0 1 1,1l0,5.81a1,1 0 0 1 -0.21,0.61l-12.79,16.73l0,9.75a1,1 0 0 1 -0.52,0.88l-8,4.36a1,1 0 0 1 -0.48,0.12zm-12,-32.79l12.79,16.73a1,1 0 0 1 0.21,0.61l0,12.77l6,-3.27l0,-9.5a1,1 0 0 1 0.21,-0.61l12.79,-16.73l0,-4.47l-32,0l0,4.47z" class="cls-1"/>
  <path opacity="0.35" fill="#fcfeff" id="svg_3" d="m38,5l0,4.13a2,2 0 0 1 -0.41,1.21l-12.18,15.93a2,2 0 0 0 -0.41,1.21l0,8.23a2,2 0 0 1 -1,1.75l-4,2.16l0,2.64l8,-4.36l0,-10.09l13,-17l0,-5.81l-3,0z" class="cls-1"/>
 </g>
</svg>